org_member_of(w_Awami_National_Party,X)	-org_member_of(w_Awami_National_Party,w_NATO)	-org_member_of(w_Awami_National_Party,w_Pashtun_Awami_National_Party)	+org_member_of(w_Awami_National_Party,w_Pakistan_'s_coalition_government)	-org_member_of(w_Awami_National_Party,w_Pakistan_Peoples_Party)	-org_member_of(w_Awami_National_Party,w_Sunni_Tehreek)	-org_member_of(w_Awami_National_Party,w_Awami_National_Party)
org_member_of(w_Arsenal_Football_Club,X)	-org_member_of(w_Arsenal_Football_Club,w_NED)	-org_member_of(w_Arsenal_Football_Club,w_ENG)	-org_member_of(w_Arsenal_Football_Club,w_Premiership)	-org_member_of(w_Arsenal_Football_Club,w_J_League)	-org_member_of(w_Arsenal_Football_Club,w_Everton)	-org_member_of(w_Arsenal_Football_Club,w_European_Champions_League)	+org_member_of(w_Arsenal_Football_Club,w_Premier_League)	-org_member_of(w_Arsenal_Football_Club,w_Barcelona)	-org_member_of(w_Arsenal_Football_Club,w_AC_Milan)	-org_member_of(w_Arsenal_Football_Club,w_Liverpool)	-org_member_of(w_Arsenal_Football_Club,w_PSC_])	-org_member_of(w_Arsenal_Football_Club,w_UEFA_Champions_League)
org_member_of(w_Blackburn_Rovers,X)	-org_member_of(w_Blackburn_Rovers,w_Premiership)	-org_member_of(w_Blackburn_Rovers,w_Bundesliga)	-org_member_of(w_Blackburn_Rovers,w_Chelsea)	-org_member_of(w_Blackburn_Rovers,w_FA_Cup)	+org_member_of(w_Blackburn_Rovers,w_Premier_League)	-org_member_of(w_Blackburn_Rovers,w_Paul_Ince)	+org_member_of(w_Blackburn_Rovers,w_Football_League)	-org_member_of(w_Blackburn_Rovers,w_20-team_Premier_League)	+org_member_of(w_Blackburn_Rovers,w_Premier_League)	-org_member_of(w_Blackburn_Rovers,w_Arsenal)	-org_member_of(w_Blackburn_Rovers,w_Aston_Villa)	-org_member_of(w_Blackburn_Rovers,w_Arsenal)	-org_member_of(w_Blackburn_Rovers,w_Aston_Villa)	-org_member_of(w_Blackburn_Rovers,w_Birmingham_City)	-org_member_of(w_Blackburn_Rovers,w_English_League_Cup)	-org_member_of(w_Blackburn_Rovers,w_Ham_United)	+org_member_of(w_Blackburn_Rovers,w_Premier_League)	-org_member_of(w_Blackburn_Rovers,w_European_Champions_League)	-org_member_of(w_Blackburn_Rovers,w_Blackburn_Rovers)	+org_member_of(w_Blackburn_Rovers,w_Premier_League)
org_member_of(w_American_BankersAssociation,X)	+org_member_of(w_American_BankersAssociation,w_American_Bankers_Association)	-org_member_of(w_American_BankersAssociation,w_Financial_Services_Roundtable)	-org_member_of(w_American_BankersAssociation,w_Congress)	-org_member_of(w_American_BankersAssociation,w_FDIC)	-org_member_of(w_American_BankersAssociation,w_Independent_Community_Bankers_of_America)	-org_member_of(w_American_BankersAssociation,w_Treasury)
org_member_of(w_Scorpions,X)	-org_member_of(w_Scorpions,w_Scorpions)	-org_member_of(w_Scorpions,w_The_Scorpions)	-org_member_of(w_Scorpions,w_ANC)	-org_member_of(w_Scorpions,w_Norfolk_Scorpions)	-org_member_of(w_Scorpions,w_ANC)	-org_member_of(w_Scorpions,w_ANC)	+org_member_of(w_Scorpions,w_National_Prosecuting_Authority)	-org_member_of(w_Scorpions,w_African_National_Congress)	-org_member_of(w_Scorpions,w_ANC)	-org_member_of(w_Scorpions,w_Crue_Fest)	-org_member_of(w_Scorpions,w_Young_Scorpions)	-org_member_of(w_Scorpions,w_Young_Communist_League_[_Ufasimba_])	-org_member_of(w_Scorpions,w_Special_Browse_Mole_Consolidated_Report)	+org_member_of(w_Scorpions,w_National_Directorate_of_Public_Prosecutions)	-org_member_of(w_Scorpions,w_ANC)	-org_member_of(w_Scorpions,w_ANC_National_Conference)	+org_member_of(w_Scorpions,w_National_Directorate_of_Public_Prosecutions)
org_member_of(w_Carnival_Cruise_Lines,X)	-org_member_of(w_Carnival_Cruise_Lines,w_Carnival_Corp.)	-org_member_of(w_Carnival_Cruise_Lines,w_Carnival_Corp.)	-org_member_of(w_Carnival_Cruise_Lines,w_Carnival_Cruise_Lines)	-org_member_of(w_Carnival_Cruise_Lines,w_Micky)	-org_member_of(w_Carnival_Cruise_Lines,w_World)	-org_member_of(w_Carnival_Cruise_Lines,w_World's_Leading_Cruise_Lines)	-org_member_of(w_Carnival_Cruise_Lines,w_Carnival_Corporation_&_plc)	+org_member_of(w_Carnival_Cruise_Lines,w_World's_Leading_Cruise_Lines)
org_member_of(w_American_Bar_Association,X)	+org_member_of(w_American_Bar_Association,w_Union_Internationale_des_Avocats)	-org_member_of(w_American_Bar_Association,w_American_Bar_Association)	-org_member_of(w_American_Bar_Association,w_ABA_Journal)	-org_member_of(w_American_Bar_Association,w_American_Civil_Liberties_Union)	-org_member_of(w_American_Bar_Association,w_Common_Cause)	-org_member_of(w_American_Bar_Association,w_St._Petersburg_Times)	-org_member_of(w_American_Bar_Association,w_ABA)	+org_member_of(w_American_Bar_Association,w_Union_Internationale_des_Avocats)
org_member_of(w_Lashkar-e-Taiba,X)	-org_member_of(w_Lashkar-e-Taiba,w_Umma_Tameer-e-Nau)	+org_member_of(w_Lashkar-e-Taiba,w_Markaz_ud-Daoua_Wal-Irshad)	-org_member_of(w_Lashkar-e-Taiba,w_Parliament)	+org_member_of(w_Lashkar-e-Taiba,w__Markaz_ud-Daoua_Wal-Irshad)
org_member_of(w_ConAgra_Foods,X)	-org_member_of(w_ConAgra_Foods,w_AP)	-org_member_of(w_ConAgra_Foods,w_The_Procter_&_Gamble_Co.)	-org_member_of(w_ConAgra_Foods,w_Lennar)	-org_member_of(w_ConAgra_Foods,w_ConAgra_Foods)	-org_member_of(w_ConAgra_Foods,w_ConAgra_Foods_Inc.)	-org_member_of(w_ConAgra_Foods,w_NagaZealTech)	-org_member_of(w_ConAgra_Foods,w_RecruiterCAT)	-org_member_of(w_ConAgra_Foods,w_MAGNUS)	-org_member_of(w_ConAgra_Foods,w_MAGNUS)	-org_member_of(w_ConAgra_Foods,w_Capitol_City_Properties)	+org_member_of(w_ConAgra_Foods,w_Grocery_Manufacturers_Association)	-org_member_of(w_ConAgra_Foods,w_Kraft_Foods_Inc.)	+org_member_of(w_ConAgra_Foods,w_Grocery_Manufacturers_Association)
