per_city_of_death(w_Pamela_Ahearn,X)	+per_city_of_death(w_Pamela_Ahearn,w_Alexandria)	+per_city_of_death(w_Pamela_Ahearn,w_Alexandria)	+per_city_of_death(w_Pamela_Ahearn,w_Alexandria)	+per_city_of_death(w_Pamela_Ahearn,w_Alexandria)	-per_city_of_death(w_Pamela_Ahearn,w_Los_Angeles)	-per_city_of_death(w_Pamela_Ahearn,w_Arlington)	+per_city_of_death(w_Pamela_Ahearn,w_Alexandria)
per_city_of_death(w_Pascal_Yoadimnadji,X)	+per_city_of_death(w_Pascal_Yoadimnadji,w_Paris)	+per_city_of_death(w_Pascal_Yoadimnadji,w_Paris)	+per_city_of_death(w_Pascal_Yoadimnadji,w_Paris)	-per_city_of_death(w_Pascal_Yoadimnadji,w_Val_de_Grace)	+per_city_of_death(w_Pascal_Yoadimnadji,w_Paris)	+per_city_of_death(w_Pascal_Yoadimnadji,w_Paris)	+per_city_of_death(w_Pascal_Yoadimnadji,w_Paris)
per_city_of_death(w_Mary_Crisp,X)	-per_city_of_death(w_Mary_Crisp,w_Boston)	+per_city_of_death(w_Mary_Crisp,w_Phoenix)	+per_city_of_death(w_Mary_Crisp,w_Phoenix)	+per_city_of_death(w_Mary_Crisp,w_Phoenix)
per_city_of_death(w_Irene_Kirkaldy,X)	-per_city_of_death(w_Irene_Kirkaldy,w_Zimbabwe)	-per_city_of_death(w_Irene_Kirkaldy,w_England)	+per_city_of_death(w_Irene_Kirkaldy,w_Gloucester)	-per_city_of_death(w_Irene_Kirkaldy,w_American)	-per_city_of_death(w_Irene_Kirkaldy,w_Gloucester_County)	+per_city_of_death(w_Irene_Kirkaldy,w_Hayes)	+per_city_of_death(w_Irene_Kirkaldy,w_Hayes)
per_city_of_death(w_Richmond_Flowers,X)	+per_city_of_death(w_Richmond_Flowers,w_Dothan)	+per_city_of_death(w_Richmond_Flowers,w_Dothan)	-per_city_of_death(w_Richmond_Flowers,w_Birmingham)	+per_city_of_death(w_Richmond_Flowers,w_Dothan)	+per_city_of_death(w_Richmond_Flowers,w_Dothan)
per_city_of_death(w_Vernon_Bellecourt,X)	-per_city_of_death(w_Vernon_Bellecourt,w_Minneapolis)	+per_city_of_death(w_Vernon_Bellecourt,w_Minneapolis)	-per_city_of_death(w_Vernon_Bellecourt,w_Pine_Ridge)	+per_city_of_death(w_Vernon_Bellecourt,w_Minneapolis)	-per_city_of_death(w_Vernon_Bellecourt,w_American)	-per_city_of_death(w_Vernon_Bellecourt,w_Cleveland)	+per_city_of_death(w_Vernon_Bellecourt,w_Minneapolis)	+per_city_of_death(w_Vernon_Bellecourt,w_Minneapolis)	+per_city_of_death(w_Vernon_Bellecourt,w_Minneapolis)
per_city_of_death(w_Lorraine_Rothman,X)	-per_city_of_death(w_Lorraine_Rothman,w_Libyan)	+per_city_of_death(w_Lorraine_Rothman,w_Fullerton)	+per_city_of_death(w_Lorraine_Rothman,w_Fullerton)	+per_city_of_death(w_Lorraine_Rothman,w_Fullerton)	+per_city_of_death(w_Lorraine_Rothman,w_Fullerton)	+per_city_of_death(w_Lorraine_Rothman,w_Fullerton)
per_city_of_death(w_Michael_Deaver,X)	-per_city_of_death(w_Michael_Deaver,w_Washington)	-per_city_of_death(w_Michael_Deaver,w_Los_Angeles)	+per_city_of_death(w_Michael_Deaver,w_Bethesda)	+per_city_of_death(w_Michael_Deaver,w_Bethesda)	+per_city_of_death(w_Michael_Deaver,w_Bethesda)	+per_city_of_death(w_Michael_Deaver,w_Bethesda)	+per_city_of_death(w_Michael_Deaver,w_Bethesda)
per_city_of_death(w_Carolyn_Goodman,X)	-per_city_of_death(w_Carolyn_Goodman,w_Mississippi)	-per_city_of_death(w_Carolyn_Goodman,w_Mississippi)	+per_city_of_death(w_Carolyn_Goodman,w_New_York)	-per_city_of_death(w_Carolyn_Goodman,w_Upper_West_Side)
per_city_of_death(w_Theodor_Kollek,X)	+per_city_of_death(w_Theodor_Kollek,w_Jerusalem)	-per_city_of_death(w_Theodor_Kollek,w_JERUSALEM)	-per_city_of_death(w_Theodor_Kollek,w_JERUSALEM)	+per_city_of_death(w_Theodor_Kollek,w_Jerusalem)	-per_city_of_death(w_Theodor_Kollek,w_Cuban)	+per_city_of_death(w_Theodor_Kollek,w_Jerusalem)
per_city_of_death(w_Beverly_Sills,X)	-per_city_of_death(w_Beverly_Sills,w_York)	-per_city_of_death(w_Beverly_Sills,w_Los_Angeles)	+per_city_of_death(w_Beverly_Sills,w_New_York_City)	-per_city_of_death(w_Beverly_Sills,w_New_York_City_Opera)	-per_city_of_death(w_Beverly_Sills,w_Swiss)	+per_city_of_death(w_Beverly_Sills,w_New_York)
per_city_of_death(w_Catherine_Roraback,X)	-per_city_of_death(w_Catherine_Roraback,w_Brooklyn)	+per_city_of_death(w_Catherine_Roraback,w_Salisbury)	+per_city_of_death(w_Catherine_Roraback,w_Salisbury)	+per_city_of_death(w_Catherine_Roraback,w_Salisbury)	+per_city_of_death(w_Catherine_Roraback,w_Salisbury)	+per_city_of_death(w_Catherine_Roraback,w_Salisbury)
per_city_of_death(w_Richard_Nolte,X)	+per_city_of_death(w_Richard_Nolte,w_Hanover)	+per_city_of_death(w_Richard_Nolte,w_Hanover)	+per_city_of_death(w_Richard_Nolte,w_Hanover)	+per_city_of_death(w_Richard_Nolte,w_Hanover)	-per_city_of_death(w_Richard_Nolte,w_Minneapolis)
per_city_of_death(w_William_Verity,X)	+per_city_of_death(w_William_Verity,w_Beaufort)	-per_city_of_death(w_William_Verity,w_MOROCCO)	-per_city_of_death(w_William_Verity,w_Iraq)	-per_city_of_death(w_William_Verity,w_Iraq)	+per_city_of_death(w_William_Verity,w_BEAUFORT)
per_city_of_death(w_Harry_Dent,X)	-per_city_of_death(w_Harry_Dent,w_United_States)	+per_city_of_death(w_Harry_Dent,w_Columbia)	-per_city_of_death(w_Harry_Dent,w_America)	+per_city_of_death(w_Harry_Dent,w_Columbia)	-per_city_of_death(w_Harry_Dent,w_Carolina)	+per_city_of_death(w_Harry_Dent,w_Columbia)
per_city_of_death(w_Bradford_Washburn,X)	-per_city_of_death(w_Bradford_Washburn,w_Boston)	-per_city_of_death(w_Bradford_Washburn,w_Cleveland)	+per_city_of_death(w_Bradford_Washburn,w_Lexington)	+per_city_of_death(w_Bradford_Washburn,w_Lexington)	+per_city_of_death(w_Bradford_Washburn,w_Lexington)	-per_city_of_death(w_Bradford_Washburn,w_Boston_Museum)	+per_city_of_death(w_Bradford_Washburn,w_Lexington)
per_city_of_death(w_Joseph_Farland,X)	-per_city_of_death(w_Joseph_Farland,w_West_VirginiaRepublican)	+per_city_of_death(w_Joseph_Farland,w_Winchester)	+per_city_of_death(w_Joseph_Farland,w_Winchester)	-per_city_of_death(w_Joseph_Farland,w_Islamabad)	+per_city_of_death(w_Joseph_Farland,w_Winchester)
